G04 #@! TF.GenerationSoftware,KiCad,Pcbnew,5.1.5-52549c5~86~ubuntu18.04.1*
G04 #@! TF.CreationDate,2020-04-26T12:01:26+02:00*
G04 #@! TF.ProjectId,outsie,6f757473-6965-42e6-9b69-6361645f7063,1*
G04 #@! TF.SameCoordinates,Original*
G04 #@! TF.FileFunction,Legend,Bot*
G04 #@! TF.FilePolarity,Positive*
%FSLAX46Y46*%
G04 Gerber Fmt 4.6, Leading zero omitted, Abs format (unit mm)*
G04 Created by KiCad (PCBNEW 5.1.5-52549c5~86~ubuntu18.04.1) date 2020-04-26 12:01:26*
%MOMM*%
%LPD*%
G04 APERTURE LIST*
%ADD10C,0.300000*%
G04 APERTURE END LIST*
D10*
X71357857Y-172398571D02*
X71000714Y-173398571D01*
X70643571Y-172398571D01*
X69286428Y-173398571D02*
X70143571Y-173398571D01*
X69715000Y-173398571D02*
X69715000Y-171898571D01*
X69857857Y-172112857D01*
X70000714Y-172255714D01*
X70143571Y-172327142D01*
X68643571Y-173255714D02*
X68572142Y-173327142D01*
X68643571Y-173398571D01*
X68715000Y-173327142D01*
X68643571Y-173255714D01*
X68643571Y-173398571D01*
X67143571Y-173398571D02*
X68000714Y-173398571D01*
X67572142Y-173398571D02*
X67572142Y-171898571D01*
X67715000Y-172112857D01*
X67857857Y-172255714D01*
X68000714Y-172327142D01*
X84891285Y-132139571D02*
X84891285Y-133139571D01*
X85534142Y-132139571D02*
X85534142Y-132925285D01*
X85462714Y-133068142D01*
X85319857Y-133139571D01*
X85105571Y-133139571D01*
X84962714Y-133068142D01*
X84891285Y-132996714D01*
X84391285Y-132139571D02*
X83819857Y-132139571D01*
X84177000Y-131639571D02*
X84177000Y-132925285D01*
X84105571Y-133068142D01*
X83962714Y-133139571D01*
X83819857Y-133139571D01*
X83319857Y-133139571D02*
X83319857Y-132139571D01*
X83319857Y-131639571D02*
X83391285Y-131711000D01*
X83319857Y-131782428D01*
X83248428Y-131711000D01*
X83319857Y-131639571D01*
X83319857Y-131782428D01*
X82391285Y-133139571D02*
X82534142Y-133068142D01*
X82605571Y-132925285D01*
X82605571Y-131639571D01*
X81819857Y-133139571D02*
X81819857Y-132139571D01*
X81819857Y-131639571D02*
X81891285Y-131711000D01*
X81819857Y-131782428D01*
X81748428Y-131711000D01*
X81819857Y-131639571D01*
X81819857Y-131782428D01*
X81319857Y-132139571D02*
X80748428Y-132139571D01*
X81105571Y-131639571D02*
X81105571Y-132925285D01*
X81034142Y-133068142D01*
X80891285Y-133139571D01*
X80748428Y-133139571D01*
X80391285Y-132139571D02*
X80034142Y-133139571D01*
X79677000Y-132139571D02*
X80034142Y-133139571D01*
X80177000Y-133496714D01*
X80248428Y-133568142D01*
X80391285Y-133639571D01*
X85061428Y-130194857D02*
X84847142Y-130266285D01*
X84775714Y-130337714D01*
X84704285Y-130480571D01*
X84704285Y-130694857D01*
X84775714Y-130837714D01*
X84847142Y-130909142D01*
X84990000Y-130980571D01*
X85561428Y-130980571D01*
X85561428Y-129480571D01*
X85061428Y-129480571D01*
X84918571Y-129552000D01*
X84847142Y-129623428D01*
X84775714Y-129766285D01*
X84775714Y-129909142D01*
X84847142Y-130052000D01*
X84918571Y-130123428D01*
X85061428Y-130194857D01*
X85561428Y-130194857D01*
X83418571Y-130980571D02*
X83418571Y-130194857D01*
X83490000Y-130052000D01*
X83632857Y-129980571D01*
X83918571Y-129980571D01*
X84061428Y-130052000D01*
X83418571Y-130909142D02*
X83561428Y-130980571D01*
X83918571Y-130980571D01*
X84061428Y-130909142D01*
X84132857Y-130766285D01*
X84132857Y-130623428D01*
X84061428Y-130480571D01*
X83918571Y-130409142D01*
X83561428Y-130409142D01*
X83418571Y-130337714D01*
X82775714Y-130909142D02*
X82632857Y-130980571D01*
X82347142Y-130980571D01*
X82204285Y-130909142D01*
X82132857Y-130766285D01*
X82132857Y-130694857D01*
X82204285Y-130552000D01*
X82347142Y-130480571D01*
X82561428Y-130480571D01*
X82704285Y-130409142D01*
X82775714Y-130266285D01*
X82775714Y-130194857D01*
X82704285Y-130052000D01*
X82561428Y-129980571D01*
X82347142Y-129980571D01*
X82204285Y-130052000D01*
X81490000Y-130980571D02*
X81490000Y-129980571D01*
X81490000Y-129480571D02*
X81561428Y-129552000D01*
X81490000Y-129623428D01*
X81418571Y-129552000D01*
X81490000Y-129480571D01*
X81490000Y-129623428D01*
X80132857Y-130909142D02*
X80275714Y-130980571D01*
X80561428Y-130980571D01*
X80704285Y-130909142D01*
X80775714Y-130837714D01*
X80847142Y-130694857D01*
X80847142Y-130266285D01*
X80775714Y-130123428D01*
X80704285Y-130052000D01*
X80561428Y-129980571D01*
X80275714Y-129980571D01*
X80132857Y-130052000D01*
X78132857Y-130980571D02*
X78275714Y-130909142D01*
X78347142Y-130837714D01*
X78418571Y-130694857D01*
X78418571Y-130266285D01*
X78347142Y-130123428D01*
X78275714Y-130052000D01*
X78132857Y-129980571D01*
X77918571Y-129980571D01*
X77775714Y-130052000D01*
X77704285Y-130123428D01*
X77632857Y-130266285D01*
X77632857Y-130694857D01*
X77704285Y-130837714D01*
X77775714Y-130909142D01*
X77918571Y-130980571D01*
X78132857Y-130980571D01*
X76347142Y-129980571D02*
X76347142Y-130980571D01*
X76990000Y-129980571D02*
X76990000Y-130766285D01*
X76918571Y-130909142D01*
X76775714Y-130980571D01*
X76561428Y-130980571D01*
X76418571Y-130909142D01*
X76347142Y-130837714D01*
X75847142Y-129980571D02*
X75275714Y-129980571D01*
X75632857Y-129480571D02*
X75632857Y-130766285D01*
X75561428Y-130909142D01*
X75418571Y-130980571D01*
X75275714Y-130980571D01*
X74775714Y-129980571D02*
X74775714Y-131480571D01*
X74775714Y-130052000D02*
X74632857Y-129980571D01*
X74347142Y-129980571D01*
X74204285Y-130052000D01*
X74132857Y-130123428D01*
X74061428Y-130266285D01*
X74061428Y-130694857D01*
X74132857Y-130837714D01*
X74204285Y-130909142D01*
X74347142Y-130980571D01*
X74632857Y-130980571D01*
X74775714Y-130909142D01*
X72775714Y-129980571D02*
X72775714Y-130980571D01*
X73418571Y-129980571D02*
X73418571Y-130766285D01*
X73347142Y-130909142D01*
X73204285Y-130980571D01*
X72990000Y-130980571D01*
X72847142Y-130909142D01*
X72775714Y-130837714D01*
X72275714Y-129980571D02*
X71704285Y-129980571D01*
X72061428Y-129480571D02*
X72061428Y-130766285D01*
X71990000Y-130909142D01*
X71847142Y-130980571D01*
X71704285Y-130980571D01*
X84456613Y-124682523D02*
X83694708Y-124682523D01*
X83337565Y-124873000D01*
X83004232Y-125253952D01*
X82908994Y-126015857D01*
X83075660Y-127349190D01*
X83361375Y-128111095D01*
X83789946Y-128492047D01*
X84194708Y-128682523D01*
X84956613Y-128682523D01*
X85313755Y-128492047D01*
X85647089Y-128111095D01*
X85742327Y-127349190D01*
X85575660Y-126015857D01*
X85289946Y-125253952D01*
X84861375Y-124873000D01*
X84456613Y-124682523D01*
X79480422Y-126015857D02*
X79813755Y-128682523D01*
X81194708Y-126015857D02*
X81456613Y-128111095D01*
X81313755Y-128492047D01*
X80956613Y-128682523D01*
X80385184Y-128682523D01*
X79980422Y-128492047D01*
X79766136Y-128301571D01*
X78147089Y-126015857D02*
X76623279Y-126015857D01*
X77408994Y-124682523D02*
X77837565Y-128111095D01*
X77694708Y-128492047D01*
X77337565Y-128682523D01*
X76956613Y-128682523D01*
X75789946Y-128492047D02*
X75432803Y-128682523D01*
X74670898Y-128682523D01*
X74266136Y-128492047D01*
X74028041Y-128111095D01*
X74004232Y-127920619D01*
X74147089Y-127539666D01*
X74504232Y-127349190D01*
X75075660Y-127349190D01*
X75432803Y-127158714D01*
X75575660Y-126777761D01*
X75551851Y-126587285D01*
X75313755Y-126206333D01*
X74908994Y-126015857D01*
X74337565Y-126015857D01*
X73980422Y-126206333D01*
X72385184Y-128682523D02*
X72051851Y-126015857D01*
X71885184Y-124682523D02*
X72099470Y-124873000D01*
X71932803Y-125063476D01*
X71718517Y-124873000D01*
X71885184Y-124682523D01*
X71932803Y-125063476D01*
X68932803Y-128492047D02*
X69337565Y-128682523D01*
X70099470Y-128682523D01*
X70456613Y-128492047D01*
X70599470Y-128111095D01*
X70408994Y-126587285D01*
X70170898Y-126206333D01*
X69766136Y-126015857D01*
X69004232Y-126015857D01*
X68647089Y-126206333D01*
X68504232Y-126587285D01*
X68551851Y-126968238D01*
X70504232Y-127349190D01*
M02*
